41
10 0
15 3433
20 7285
25 12481
30 16970
35 21736
40 27341
45 33215
50 39174
55 46036
60 51424
65 58040
70 63338
75 69790
80 76358
85 83749
90 91887
95 100789
100 110361
105 120072
110 131191
115 141029
120 151367
125 161885
130 170491
135 181193
140 190914
145 203191
150 215138
155 225860
160 238358
165 251674
170 263501
175 276338
180 289879
185 303934
190 316564
195 329003
200 342222
205 355383
210 369385
