EESchema Schematic File Version 4
EELAYER 26 0
EELAYER END
$Descr User 9000 22000
encoding utf-8
Sheet 1 1
Title ""
Date ""
Rev ""
Comp ""
Comment1 ""
Comment2 ""
Comment3 ""
Comment4 ""
$EndDescr
$Comp
L Logic:DD_NOR3_1 D
U 1 1 5ACA2F9E
P 1900 9000
F 0 "D" H 1900 9617 70  0001 C CNN
F 1 "0" H 1900 9496 70  0001 C CNN
F 2 "" H 1900 9100 70  0001 C CNN
F 3 "" H 1900 9100 70  0001 C CNN
	1    1900 9000
	1    0    0    -1  
$EndComp
$Comp
L Logic:DD_NOR3_1 D?
U 1 1 5ACA4038
P 4350 11750
F 0 "D?" H 4350 12367 70  0001 C CNN
F 1 "0" H 4350 12246 70  0001 C CNN
F 2 "" H 4350 11850 70  0001 C CNN
F 3 "" H 4350 11850 70  0001 C CNN
	1    4350 11750
	1    0    0    -1  
$EndComp
$Comp
L Logic:DD_NOR3_1 D?
U 1 1 5ACA41FF
P 5550 13850
F 0 "D?" H 5550 14467 70  0001 C CNN
F 1 "0" H 5550 14346 70  0001 C CNN
F 2 "" H 5550 13950 70  0001 C CNN
F 3 "" H 5550 13950 70  0001 C CNN
	1    5550 13850
	1    0    0    -1  
$EndComp
$Comp
L Logic:DD_NOR3_1 D?
U 1 1 5ACA4232
P 3100 10850
F 0 "D?" H 3100 11467 70  0001 C CNN
F 1 "0" H 3100 11346 70  0001 C CNN
F 2 "" H 3100 10950 70  0001 C CNN
F 3 "" H 3100 10950 70  0001 C CNN
	1    3100 10850
	1    0    0    -1  
$EndComp
$Comp
L Logic:DD_NOR3_1 D?
U 1 1 5ACA423D
P 1900 10850
F 0 "D?" H 1900 11467 70  0001 C CNN
F 1 "0" H 1900 11346 70  0001 C CNN
F 2 "" H 1900 10950 70  0001 C CNN
F 3 "" H 1900 10950 70  0001 C CNN
	1    1900 10850
	1    0    0    -1  
$EndComp
$Comp
L Logic:DD_NOR3_1 D?
U 1 1 5ACA4248
P 4350 13100
F 0 "D?" H 4350 13717 70  0001 C CNN
F 1 "0" H 4350 13596 70  0001 C CNN
F 2 "" H 4350 13200 70  0001 C CNN
F 3 "" H 4350 13200 70  0001 C CNN
	1    4350 13100
	1    0    0    -1  
$EndComp
$Comp
L Logic:DD_NOR3_1 D?
U 1 1 5ACA4253
P 3150 13100
F 0 "D?" H 3150 13717 70  0001 C CNN
F 1 "0" H 3150 13596 70  0001 C CNN
F 2 "" H 3150 13200 70  0001 C CNN
F 3 "" H 3150 13200 70  0001 C CNN
	1    3150 13100
	1    0    0    -1  
$EndComp
$Comp
L Logic:DD_NOR3_1 D?
U 1 1 5ACA425E
P 1900 12000
F 0 "D?" H 1900 12617 70  0001 C CNN
F 1 "0" H 1900 12496 70  0001 C CNN
F 2 "" H 1900 12100 70  0001 C CNN
F 3 "" H 1900 12100 70  0001 C CNN
	1    1900 12000
	1    0    0    -1  
$EndComp
$Comp
L Logic:DD_NOR3_1 D?
U 1 1 5ACA4269
P 1900 13100
F 0 "D?" H 1900 13717 70  0001 C CNN
F 1 "0" H 1900 13596 70  0001 C CNN
F 2 "" H 1900 13200 70  0001 C CNN
F 3 "" H 1900 13200 70  0001 C CNN
	1    1900 13100
	1    0    0    -1  
$EndComp
Text Label 1550 10650 0    50   ~ 0
Q3
Text Label 1550 10850 0    50   ~ 0
Q1
Text Label 1550 11800 0    50   ~ 0
X1
Text Label 1500 12000 0    50   ~ 0
¬X2
Text Label 1500 12900 0    50   ~ 0
¬X1
Text Label 1500 13100 0    50   ~ 0
¬X3
$Comp
L Power:+5V #PWR0101
U 1 1 5ACAA46C
P 1550 11050
F 0 "#PWR0101" V 1552 11454 70  0001 L CNN
F 1 "+5V" V 1552 11454 70  0001 L CNN
F 2 "" H 1550 11050 70  0001 C CNN
F 3 "" H 1550 11050 70  0001 C CNN
	1    1550 11050
	0    -1   -1   0   
$EndComp
$Comp
L Power:+5V #PWR0102
U 1 1 5ACAB6D2
P 2750 11050
F 0 "#PWR0102" V 2752 11454 70  0001 L CNN
F 1 "+5V" V 2752 11454 70  0001 L CNN
F 2 "" H 2750 11050 70  0001 C CNN
F 3 "" H 2750 11050 70  0001 C CNN
	1    2750 11050
	0    -1   -1   0   
$EndComp
$Comp
L Power:+5V #PWR0103
U 1 1 5ACAC657
P 4000 12900
F 0 "#PWR0103" V 4002 13304 70  0001 L CNN
F 1 "+5V" V 4002 13304 70  0001 L CNN
F 2 "" H 4000 12900 70  0001 C CNN
F 3 "" H 4000 12900 70  0001 C CNN
	1    4000 12900
	0    -1   -1   0   
$EndComp
$Comp
L Power:+5V #PWR0104
U 1 1 5ACAC662
P 2800 13300
F 0 "#PWR0104" V 2802 13704 70  0001 L CNN
F 1 "+5V" V 2802 13704 70  0001 L CNN
F 2 "" H 2800 13300 70  0001 C CNN
F 3 "" H 2800 13300 70  0001 C CNN
	1    2800 13300
	0    -1   -1   0   
$EndComp
$Comp
L Power:+5V #PWR0105
U 1 1 5ACAC66D
P 4000 13300
F 0 "#PWR0105" V 4002 13704 70  0001 L CNN
F 1 "+5V" V 4002 13704 70  0001 L CNN
F 2 "" H 4000 13300 70  0001 C CNN
F 3 "" H 4000 13300 70  0001 C CNN
	1    4000 13300
	0    -1   -1   0   
$EndComp
$Comp
L Power:+5V #PWR0106
U 1 1 5ACAC678
P 1550 12200
F 0 "#PWR0106" V 1552 12604 70  0001 L CNN
F 1 "+5V" V 1552 12604 70  0001 L CNN
F 2 "" H 1550 12200 70  0001 C CNN
F 3 "" H 1550 12200 70  0001 C CNN
	1    1550 12200
	0    -1   -1   0   
$EndComp
$Comp
L Power:+5V #PWR0107
U 1 1 5ACAC683
P 1550 13300
F 0 "#PWR0107" V 1552 13704 70  0001 L CNN
F 1 "+5V" V 1552 13704 70  0001 L CNN
F 2 "" H 1550 13300 70  0001 C CNN
F 3 "" H 1550 13300 70  0001 C CNN
	1    1550 13300
	0    -1   -1   0   
$EndComp
$Comp
L Power:+5V #PWR0108
U 1 1 5ACAC756
P 4000 11750
F 0 "#PWR0108" V 4002 12154 70  0001 L CNN
F 1 "+5V" V 4002 12154 70  0001 L CNN
F 2 "" H 4000 11750 70  0001 C CNN
F 3 "" H 4000 11750 70  0001 C CNN
	1    4000 11750
	0    -1   -1   0   
$EndComp
$Comp
L Power:+5V #PWR0109
U 1 1 5ACACD3A
P 5200 14050
F 0 "#PWR0109" V 5202 14454 70  0001 L CNN
F 1 "+5V" V 5202 14454 70  0001 L CNN
F 2 "" H 5200 14050 70  0001 C CNN
F 3 "" H 5200 14050 70  0001 C CNN
	1    5200 14050
	0    -1   -1   0   
$EndComp
$Comp
L Triggers:DD_RS_ASYNC_E_1 DD?
U 1 1 5ACAE2C0
P 6450 9400
F 0 "DD?" H 6450 10217 70  0001 C CNN
F 1 "DD_RS_ASYNC_E_1" H 6450 10096 70  0001 C CNN
F 2 "" H 6550 9700 70  0001 C CNN
F 3 "" H 6550 9700 70  0001 C CNN
	1    6450 9400
	1    0    0    -1  
$EndComp
$Comp
L Triggers:DD_RS_ASYNC_E_1 DD?
U 1 1 5ACAEFEF
P 6450 14250
F 0 "DD?" H 6450 15067 70  0001 C CNN
F 1 "DD_RS_ASYNC_E_1" H 6450 14946 70  0001 C CNN
F 2 "" H 6550 14550 70  0001 C CNN
F 3 "" H 6550 14550 70  0001 C CNN
	1    6450 14250
	1    0    0    -1  
$EndComp
$Comp
L Triggers:DD_RS_ASYNC_E_1 DD?
U 1 1 5ACAEFFA
P 6450 17850
F 0 "DD?" H 6450 18667 70  0001 C CNN
F 1 "DD_RS_ASYNC_E_1" H 6450 18546 70  0001 C CNN
F 2 "" H 6550 18150 70  0001 C CNN
F 3 "" H 6550 18150 70  0001 C CNN
	1    6450 17850
	1    0    0    -1  
$EndComp
Text Label 1500 8800 0    50   ~ 0
¬X1
Text Label 1550 9000 0    50   ~ 0
X3
$Comp
L Logic:DD_NOR3_1 D?
U 1 1 5ACB8F14
P 1900 14650
F 0 "D?" H 1900 15267 70  0001 C CNN
F 1 "0" H 1900 15146 70  0001 C CNN
F 2 "" H 1900 14750 70  0001 C CNN
F 3 "" H 1900 14750 70  0001 C CNN
	1    1900 14650
	1    0    0    -1  
$EndComp
Text Label 1550 14450 0    50   ~ 0
Q3
$Comp
L Logic:DD_NOR3_1 D?
U 1 1 5ACBA437
P 1900 16100
F 0 "D?" H 1900 16717 70  0001 C CNN
F 1 "0" H 1900 16596 70  0001 C CNN
F 2 "" H 1900 16200 70  0001 C CNN
F 3 "" H 1900 16200 70  0001 C CNN
	1    1900 16100
	1    0    0    -1  
$EndComp
$Comp
L Logic:DD_NOR3_1 D?
U 1 1 5ACBA442
P 3150 17000
F 0 "D?" H 3150 17617 70  0001 C CNN
F 1 "0" H 3150 17496 70  0001 C CNN
F 2 "" H 3150 17100 70  0001 C CNN
F 3 "" H 3150 17100 70  0001 C CNN
	1    3150 17000
	1    0    0    -1  
$EndComp
$Comp
L Power:+5V #PWR0110
U 1 1 5ACBCF8F
P 1550 16300
F 0 "#PWR0110" V 1552 16704 70  0001 L CNN
F 1 "+5V" V 1552 16704 70  0001 L CNN
F 2 "" H 1550 16300 70  0001 C CNN
F 3 "" H 1550 16300 70  0001 C CNN
	1    1550 16300
	0    -1   -1   0   
$EndComp
Text Label 1500 15900 0    50   ~ 0
¬X1
Text Label 1500 16100 0    50   ~ 0
¬X3
Text Label 2700 17000 0    50   ~ 0
Q2
$Comp
L Logic:DD_NOR3_1 D?
U 1 1 5ACC1D8A
P 1900 18250
F 0 "D?" H 1900 18867 70  0001 C CNN
F 1 "0" H 1900 18746 70  0001 C CNN
F 2 "" H 1900 18350 70  0001 C CNN
F 3 "" H 1900 18350 70  0001 C CNN
	1    1900 18250
	1    0    0    -1  
$EndComp
$Comp
L Logic:DD_NOR3_1 D?
U 1 1 5ACC1D95
P 3150 18250
F 0 "D?" H 3150 18867 70  0001 C CNN
F 1 "0" H 3150 18746 70  0001 C CNN
F 2 "" H 3150 18350 70  0001 C CNN
F 3 "" H 3150 18350 70  0001 C CNN
	1    3150 18250
	1    0    0    -1  
$EndComp
$Comp
L Power:+5V #PWR0111
U 1 1 5ACC3BF1
P 1550 18450
F 0 "#PWR0111" V 1552 18854 70  0001 L CNN
F 1 "+5V" V 1552 18854 70  0001 L CNN
F 2 "" H 1550 18450 70  0001 C CNN
F 3 "" H 1550 18450 70  0001 C CNN
	1    1550 18450
	0    -1   -1   0   
$EndComp
$Comp
L Power:+5V #PWR0112
U 1 1 5ACC3C07
P 2800 18050
F 0 "#PWR0112" V 2802 18454 70  0001 L CNN
F 1 "+5V" V 2802 18454 70  0001 L CNN
F 2 "" H 2800 18050 70  0001 C CNN
F 3 "" H 2800 18050 70  0001 C CNN
	1    2800 18050
	0    -1   -1   0   
$EndComp
Text Label 1500 18050 0    50   ~ 0
¬X1
Text Label 1500 18250 0    50   ~ 0
¬X2
Text Label 1150 9400 0    50   ~ 0
C
Text Label 1150 9650 0    50   ~ 0
X
$Comp
L Logic:DD_NOR3_1 D?
U 1 1 5ACCB371
P 1900 19350
F 0 "D?" H 1900 19967 70  0001 C CNN
F 1 "0" H 1900 19846 70  0001 C CNN
F 2 "" H 1900 19450 70  0001 C CNN
F 3 "" H 1900 19450 70  0001 C CNN
	1    1900 19350
	1    0    0    -1  
$EndComp
$Comp
L Power:+5V #PWR0113
U 1 1 5ACCC91A
P 1550 19350
F 0 "#PWR0113" V 1552 19754 70  0001 L CNN
F 1 "+5V" V 1552 19754 70  0001 L CNN
F 2 "" H 1550 19350 70  0001 C CNN
F 3 "" H 1550 19350 70  0001 C CNN
	1    1550 19350
	0    -1   -1   0   
$EndComp
$Comp
L Power:+5V #PWR0114
U 1 1 5ACCC925
P 1550 19550
F 0 "#PWR0114" V 1552 19954 70  0001 L CNN
F 1 "+5V" V 1552 19954 70  0001 L CNN
F 2 "" H 1550 19550 70  0001 C CNN
F 3 "" H 1550 19550 70  0001 C CNN
	1    1550 19550
	0    -1   -1   0   
$EndComp
Text Label 1550 19150 0    50   ~ 0
C
$Comp
L Logic:DD_NOR3_1 D?
U 1 1 5ACCFA86
P 3150 19350
F 0 "D?" H 3150 19967 70  0001 C CNN
F 1 "0" H 3150 19846 70  0001 C CNN
F 2 "" H 3150 19450 70  0001 C CNN
F 3 "" H 3150 19450 70  0001 C CNN
	1    3150 19350
	1    0    0    -1  
$EndComp
$Comp
L Logic:DD_NOR3_1 D?
U 1 1 5ACCFA91
P 4350 19350
F 0 "D?" H 4350 19967 70  0001 C CNN
F 1 "0" H 4350 19846 70  0001 C CNN
F 2 "" H 4350 19450 70  0001 C CNN
F 3 "" H 4350 19450 70  0001 C CNN
	1    4350 19350
	1    0    0    -1  
$EndComp
$Comp
L Logic:DD_NOR3_1 D?
U 1 1 5ACCFA9C
P 5600 19350
F 0 "D?" H 5600 19967 70  0001 C CNN
F 1 "0" H 5600 19846 70  0001 C CNN
F 2 "" H 5600 19450 70  0001 C CNN
F 3 "" H 5600 19450 70  0001 C CNN
	1    5600 19350
	1    0    0    -1  
$EndComp
$Comp
L Power:+5V #PWR0115
U 1 1 5ACD9A6F
P 2800 19150
F 0 "#PWR0115" V 2802 19554 70  0001 L CNN
F 1 "+5V" V 2802 19554 70  0001 L CNN
F 2 "" H 2800 19150 70  0001 C CNN
F 3 "" H 2800 19150 70  0001 C CNN
	1    2800 19150
	0    -1   -1   0   
$EndComp
$Comp
L Power:+5V #PWR0116
U 1 1 5ACD9A7A
P 2800 19350
F 0 "#PWR0116" V 2802 19754 70  0001 L CNN
F 1 "+5V" V 2802 19754 70  0001 L CNN
F 2 "" H 2800 19350 70  0001 C CNN
F 3 "" H 2800 19350 70  0001 C CNN
	1    2800 19350
	0    -1   -1   0   
$EndComp
$Comp
L Power:+5V #PWR0117
U 1 1 5ACD9A85
P 4000 19150
F 0 "#PWR0117" V 4002 19554 70  0001 L CNN
F 1 "+5V" V 4002 19554 70  0001 L CNN
F 2 "" H 4000 19150 70  0001 C CNN
F 3 "" H 4000 19150 70  0001 C CNN
	1    4000 19150
	0    -1   -1   0   
$EndComp
$Comp
L Power:+5V #PWR0118
U 1 1 5ACD9A90
P 4000 19350
F 0 "#PWR0118" V 4002 19754 70  0001 L CNN
F 1 "+5V" V 4002 19754 70  0001 L CNN
F 2 "" H 4000 19350 70  0001 C CNN
F 3 "" H 4000 19350 70  0001 C CNN
	1    4000 19350
	0    -1   -1   0   
$EndComp
$Comp
L Power:+5V #PWR0119
U 1 1 5ACD9A9B
P 5250 19150
F 0 "#PWR0119" V 5252 19554 70  0001 L CNN
F 1 "+5V" V 5252 19554 70  0001 L CNN
F 2 "" H 5250 19150 70  0001 C CNN
F 3 "" H 5250 19150 70  0001 C CNN
	1    5250 19150
	0    -1   -1   0   
$EndComp
$Comp
L Power:+5V #PWR0120
U 1 1 5ACD9AA6
P 5250 19350
F 0 "#PWR0120" V 5252 19754 70  0001 L CNN
F 1 "+5V" V 5252 19754 70  0001 L CNN
F 2 "" H 5250 19350 70  0001 C CNN
F 3 "" H 5250 19350 70  0001 C CNN
	1    5250 19350
	0    -1   -1   0   
$EndComp
Text Label 2800 19550 0    50   ~ 0
X1
Text Label 4000 19550 0    50   ~ 0
X2
Text Label 5250 19550 0    50   ~ 0
X3
Text Label 2750 18450 0    50   ~ 0
¬C
Text Label 2700 17200 0    50   ~ 0
¬C
$Comp
L Power:+5V #PWR0121
U 1 1 5ACB9A7F
P 1550 14850
F 0 "#PWR0121" V 1552 15254 70  0001 L CNN
F 1 "+5V" V 1552 15254 70  0001 L CNN
F 2 "" H 1550 14850 70  0001 C CNN
F 3 "" H 1550 14850 70  0001 C CNN
	1    1550 14850
	0    -1   -1   0   
$EndComp
Text Label 1550 14650 0    50   ~ 0
¬C
$Comp
L Power:+5V #PWR0122
U 1 1 5ACAD0D2
P 2750 10650
F 0 "#PWR0122" V 2752 11054 70  0001 L CNN
F 1 "+5V" V 2752 11054 70  0001 L CNN
F 2 "" H 2750 10650 70  0001 C CNN
F 3 "" H 2750 10650 70  0001 C CNN
	1    2750 10650
	0    -1   -1   0   
$EndComp
Text Label 1550 9200 0    50   ~ 0
¬C
Text Label 5950 9800 0    50   ~ 0
C
Text Label 6900 9800 0    50   ~ 0
¬Q1
Text Label 6950 9000 0    50   ~ 0
Q1
Text Label 6900 13850 0    50   ~ 0
Q2
Text Label 6900 14650 0    50   ~ 0
¬Q2
Text Label 6900 18250 0    50   ~ 0
¬Q3
Text Label 6950 17450 0    50   ~ 0
Q3
Text Label 5100 13850 0    50   ~ 0
¬C
$Comp
L Logic:DD_NOR3_1 D?
U 1 1 5AD1841C
P 1900 6150
F 0 "D?" H 1900 6767 70  0001 C CNN
F 1 "0" H 1900 6646 70  0001 C CNN
F 2 "" H 1900 6250 70  0001 C CNN
F 3 "" H 1900 6250 70  0001 C CNN
	1    1900 6150
	1    0    0    -1  
$EndComp
Text Label 2250 6250 0    50   ~ 0
Y0
$Comp
L Power:+5V #PWR0123
U 1 1 5AD1C314
P 1550 6350
F 0 "#PWR0123" V 1552 6754 70  0001 L CNN
F 1 "+5V" V 1552 6754 70  0001 L CNN
F 2 "" H 1550 6350 70  0001 C CNN
F 3 "" H 1550 6350 70  0001 C CNN
	1    1550 6350
	0    -1   -1   0   
$EndComp
Text Label 1450 5950 0    50   ~ 0
¬Q2
Text Label 1500 6150 0    50   ~ 0
Q3
Text Label 3450 5200 0    50   ~ 0
Y1
$Comp
L Logic:DD_NOR3_1 D?
U 1 1 5AD1F70E
P 1900 4650
F 0 "D?" H 1900 5267 70  0001 C CNN
F 1 "0" H 1900 5146 70  0001 C CNN
F 2 "" H 1900 4750 70  0001 C CNN
F 3 "" H 1900 4750 70  0001 C CNN
	1    1900 4650
	1    0    0    -1  
$EndComp
$Comp
L Logic:DD_NOR3_1 D?
U 1 1 5AD1F719
P 3100 5150
F 0 "D?" H 3100 5767 70  0001 C CNN
F 1 "0" H 3100 5646 70  0001 C CNN
F 2 "" H 3100 5250 70  0001 C CNN
F 3 "" H 3100 5250 70  0001 C CNN
	1    3100 5150
	1    0    0    -1  
$EndComp
Text Label 1450 4450 0    50   ~ 0
¬Q3
$Comp
L Power:+5V #PWR0124
U 1 1 5AD33254
P 1550 4850
F 0 "#PWR0124" V 1552 5254 70  0001 L CNN
F 1 "+5V" V 1552 5254 70  0001 L CNN
F 2 "" H 1550 4850 70  0001 C CNN
F 3 "" H 1550 4850 70  0001 C CNN
	1    1550 4850
	0    -1   -1   0   
$EndComp
Text Label 1500 4650 0    50   ~ 0
X2
Text Label 2750 5150 0    50   ~ 0
X1
Text Label 2750 5350 0    50   ~ 0
Q2
$Comp
L Logic:DD_NOR3_1 D?
U 1 1 5AD359EF
P 6500 2850
F 0 "D?" H 6500 3467 70  0001 C CNN
F 1 "0" H 6500 3346 70  0001 C CNN
F 2 "" H 6500 2950 70  0001 C CNN
F 3 "" H 6500 2950 70  0001 C CNN
	1    6500 2850
	1    0    0    -1  
$EndComp
$Comp
L Logic:DD_NOR3_1 D?
U 1 1 5AD35C2E
P 5500 2850
F 0 "D?" H 5500 3467 70  0001 C CNN
F 1 "0" H 5500 3346 70  0001 C CNN
F 2 "" H 5500 2950 70  0001 C CNN
F 3 "" H 5500 2950 70  0001 C CNN
	1    5500 2850
	1    0    0    -1  
$EndComp
$Comp
L Logic:DD_NOR3_1 D?
U 1 1 5AD35C39
P 4350 3900
F 0 "D?" H 4350 4517 70  0001 C CNN
F 1 "0" H 4350 4396 70  0001 C CNN
F 2 "" H 4350 4000 70  0001 C CNN
F 3 "" H 4350 4000 70  0001 C CNN
	1    4350 3900
	1    0    0    -1  
$EndComp
$Comp
L Logic:DD_NOR3_1 D?
U 1 1 5AD35C44
P 4350 2850
F 0 "D?" H 4350 3467 70  0001 C CNN
F 1 "0" H 4350 3346 70  0001 C CNN
F 2 "" H 4350 2950 70  0001 C CNN
F 3 "" H 4350 2950 70  0001 C CNN
	1    4350 2850
	1    0    0    -1  
$EndComp
$Comp
L Logic:DD_NOR3_1 D?
U 1 1 5AD35C4F
P 4350 1800
F 0 "D?" H 4350 2417 70  0001 C CNN
F 1 "0" H 4350 2296 70  0001 C CNN
F 2 "" H 4350 1900 70  0001 C CNN
F 3 "" H 4350 1900 70  0001 C CNN
	1    4350 1800
	1    0    0    -1  
$EndComp
$Comp
L Logic:DD_NOR3_1 D?
U 1 1 5AD35C5A
P 3200 2250
F 0 "D?" H 3200 2867 70  0001 C CNN
F 1 "0" H 3200 2746 70  0001 C CNN
F 2 "" H 3200 2350 70  0001 C CNN
F 3 "" H 3200 2350 70  0001 C CNN
	1    3200 2250
	1    0    0    -1  
$EndComp
$Comp
L Logic:DD_NOR3_1 D?
U 1 1 5AD35C65
P 3200 3200
F 0 "D?" H 3200 3817 70  0001 C CNN
F 1 "0" H 3200 3696 70  0001 C CNN
F 2 "" H 3200 3300 70  0001 C CNN
F 3 "" H 3200 3300 70  0001 C CNN
	1    3200 3200
	1    0    0    -1  
$EndComp
$Comp
L Logic:DD_NOR3_1 D?
U 1 1 5AD35C70
P 2250 2250
F 0 "D?" H 2250 2867 70  0001 C CNN
F 1 "0" H 2250 2746 70  0001 C CNN
F 2 "" H 2250 2350 70  0001 C CNN
F 3 "" H 2250 2350 70  0001 C CNN
	1    2250 2250
	1    0    0    -1  
$EndComp
$Comp
L Logic:DD_NOR3_1 D?
U 1 1 5AD35C7B
P 2250 3200
F 0 "D?" H 2250 3817 70  0001 C CNN
F 1 "0" H 2250 3696 70  0001 C CNN
F 2 "" H 2250 3300 70  0001 C CNN
F 3 "" H 2250 3300 70  0001 C CNN
	1    2250 3200
	1    0    0    -1  
$EndComp
$Comp
L Power:+5V #PWR0125
U 1 1 5AD52CA3
P 4000 2000
F 0 "#PWR0125" V 4002 2404 70  0001 L CNN
F 1 "+5V" V 4002 2404 70  0001 L CNN
F 2 "" H 4000 2000 70  0001 C CNN
F 3 "" H 4000 2000 70  0001 C CNN
	1    4000 2000
	0    -1   -1   0   
$EndComp
$Comp
L Power:+5V #PWR0126
U 1 1 5AD52CB8
P 4000 2850
F 0 "#PWR0126" V 4002 3254 70  0001 L CNN
F 1 "+5V" V 4002 3254 70  0001 L CNN
F 2 "" H 4000 2850 70  0001 C CNN
F 3 "" H 4000 2850 70  0001 C CNN
	1    4000 2850
	0    -1   -1   0   
$EndComp
$Comp
L Power:+5V #PWR0127
U 1 1 5AD61517
P 2850 2050
F 0 "#PWR0127" V 2852 2454 70  0001 L CNN
F 1 "+5V" V 2852 2454 70  0001 L CNN
F 2 "" H 2850 2050 70  0001 C CNN
F 3 "" H 2850 2050 70  0001 C CNN
	1    2850 2050
	0    -1   -1   0   
$EndComp
$Comp
L Power:+5V #PWR0128
U 1 1 5AD61522
P 2850 3000
F 0 "#PWR0128" V 2852 3404 70  0001 L CNN
F 1 "+5V" V 2852 3404 70  0001 L CNN
F 2 "" H 2850 3000 70  0001 C CNN
F 3 "" H 2850 3000 70  0001 C CNN
	1    2850 3000
	0    -1   -1   0   
$EndComp
$Comp
L Power:+5V #PWR0129
U 1 1 5AD6152D
P 2850 2450
F 0 "#PWR0129" V 2852 2854 70  0001 L CNN
F 1 "+5V" V 2852 2854 70  0001 L CNN
F 2 "" H 2850 2450 70  0001 C CNN
F 3 "" H 2850 2450 70  0001 C CNN
	1    2850 2450
	0    -1   -1   0   
$EndComp
$Comp
L Power:+5V #PWR0130
U 1 1 5AD61538
P 2850 3400
F 0 "#PWR0130" V 2852 3804 70  0001 L CNN
F 1 "+5V" V 2852 3804 70  0001 L CNN
F 2 "" H 2850 3400 70  0001 C CNN
F 3 "" H 2850 3400 70  0001 C CNN
	1    2850 3400
	0    -1   -1   0   
$EndComp
$Comp
L Power:+5V #PWR0131
U 1 1 5AD61819
P 1900 3400
F 0 "#PWR0131" V 1902 3804 70  0001 L CNN
F 1 "+5V" V 1902 3804 70  0001 L CNN
F 2 "" H 1900 3400 70  0001 C CNN
F 3 "" H 1900 3400 70  0001 C CNN
	1    1900 3400
	0    -1   -1   0   
$EndComp
$Comp
L Power:+5V #PWR0132
U 1 1 5AD61824
P 1900 2450
F 0 "#PWR0132" V 1902 2854 70  0001 L CNN
F 1 "+5V" V 1902 2854 70  0001 L CNN
F 2 "" H 1900 2450 70  0001 C CNN
F 3 "" H 1900 2450 70  0001 C CNN
	1    1900 2450
	0    -1   -1   0   
$EndComp
$Comp
L Power:+5V #PWR0133
U 1 1 5ADA6E8D
P 6150 3050
F 0 "#PWR0133" V 6152 3454 70  0001 L CNN
F 1 "+5V" V 6152 3454 70  0001 L CNN
F 2 "" H 6150 3050 70  0001 C CNN
F 3 "" H 6150 3050 70  0001 C CNN
	1    6150 3050
	0    -1   -1   0   
$EndComp
$Comp
L Power:+5V #PWR0134
U 1 1 5ADA6E98
P 6150 2650
F 0 "#PWR0134" V 6152 3054 70  0001 L CNN
F 1 "+5V" V 6152 3054 70  0001 L CNN
F 2 "" H 6150 2650 70  0001 C CNN
F 3 "" H 6150 2650 70  0001 C CNN
	1    6150 2650
	0    -1   -1   0   
$EndComp
Text Label 6950 2850 0    50   ~ 0
Y2
Text Label 3950 1600 0    50   ~ 0
¬Q3
Text Label 3950 1800 0    50   ~ 0
¬Q2
Text Label 4000 4100 0    50   ~ 0
Q2
Text Label 3950 3700 0    50   ~ 0
¬X1
Text Label 3950 3900 0    50   ~ 0
¬X3
Text Label 1900 2050 0    50   ~ 0
X1
Text Label 1900 3000 0    50   ~ 0
Q1
Text Label 1850 2250 0    50   ~ 0
¬X2
Text Label 1900 3200 0    50   ~ 0
Q2
$Comp
L Logic:DD_NOR3_1 D?
U 1 1 5ADAF187
P 6550 7950
F 0 "D?" H 6550 8567 70  0001 C CNN
F 1 "0" H 6550 8446 70  0001 C CNN
F 2 "" H 6550 8050 70  0001 C CNN
F 3 "" H 6550 8050 70  0001 C CNN
	1    6550 7950
	1    0    0    -1  
$EndComp
$Comp
L Logic:DD_NOR3_1 D?
U 1 1 5ADAF192
P 5600 7950
F 0 "D?" H 5600 8567 70  0001 C CNN
F 1 "0" H 5600 8446 70  0001 C CNN
F 2 "" H 5600 8050 70  0001 C CNN
F 3 "" H 5600 8050 70  0001 C CNN
	1    5600 7950
	1    0    0    -1  
$EndComp
$Comp
L Logic:DD_NOR3_1 D?
U 1 1 5ADAF19D
P 4750 7300
F 0 "D?" H 4750 7917 70  0001 C CNN
F 1 "0" H 4750 7796 70  0001 C CNN
F 2 "" H 4750 7400 70  0001 C CNN
F 3 "" H 4750 7400 70  0001 C CNN
	1    4750 7300
	1    0    0    -1  
$EndComp
$Comp
L Logic:DD_NOR3_1 D?
U 1 1 5ADAF1A8
P 4750 8300
F 0 "D?" H 4750 8917 70  0001 C CNN
F 1 "0" H 4750 8796 70  0001 C CNN
F 2 "" H 4750 8400 70  0001 C CNN
F 3 "" H 4750 8400 70  0001 C CNN
	1    4750 8300
	1    0    0    -1  
$EndComp
$Comp
L Power:+5V #PWR0135
U 1 1 5ADF161C
P 4400 8100
F 0 "#PWR0135" V 4402 8504 70  0001 L CNN
F 1 "+5V" V 4402 8504 70  0001 L CNN
F 2 "" H 4400 8100 70  0001 C CNN
F 3 "" H 4400 8100 70  0001 C CNN
	1    4400 8100
	0    -1   -1   0   
$EndComp
$Comp
L Power:+5V #PWR0136
U 1 1 5ADF1627
P 5250 7950
F 0 "#PWR0136" V 5252 8354 70  0001 L CNN
F 1 "+5V" V 5252 8354 70  0001 L CNN
F 2 "" H 5250 7950 70  0001 C CNN
F 3 "" H 5250 7950 70  0001 C CNN
	1    5250 7950
	0    -1   -1   0   
$EndComp
$Comp
L Power:+5V #PWR0137
U 1 1 5ADF1632
P 6200 8150
F 0 "#PWR0137" V 6202 8554 70  0001 L CNN
F 1 "+5V" V 6202 8554 70  0001 L CNN
F 2 "" H 6200 8150 70  0001 C CNN
F 3 "" H 6200 8150 70  0001 C CNN
	1    6200 8150
	0    -1   -1   0   
$EndComp
$Comp
L Power:+5V #PWR0138
U 1 1 5ADF163D
P 6200 7750
F 0 "#PWR0138" V 6202 8154 70  0001 L CNN
F 1 "+5V" V 6202 8154 70  0001 L CNN
F 2 "" H 6200 7750 70  0001 C CNN
F 3 "" H 6200 7750 70  0001 C CNN
	1    6200 7750
	0    -1   -1   0   
$EndComp
$Comp
L Power:+5V #PWR0139
U 1 1 5ADF197E
P 4400 7100
F 0 "#PWR0139" V 4402 7504 70  0001 L CNN
F 1 "+5V" V 4402 7504 70  0001 L CNN
F 2 "" H 4400 7100 70  0001 C CNN
F 3 "" H 4400 7100 70  0001 C CNN
	1    4400 7100
	0    -1   -1   0   
$EndComp
Text Label 6950 7950 0    50   ~ 0
Y3
Text Label 4350 7300 0    50   ~ 0
¬X1
Text Label 4400 7500 0    50   ~ 0
X3
Text Label 4400 8300 0    50   ~ 0
Q2
Text Label 4350 8500 0    50   ~ 0
¬Q3
Wire Wire Line
	4400 7300 1250 7300
Wire Wire Line
	4400 7500 1250 7500
Wire Wire Line
	4400 8300 1250 8300
Wire Wire Line
	4400 8500 1250 8500
Wire Wire Line
	5250 7300 5250 7750
Wire Wire Line
	5100 7300 5250 7300
Wire Wire Line
	5250 8300 5250 8150
Wire Wire Line
	5100 8300 5250 8300
Wire Wire Line
	5950 7950 6200 7950
Wire Wire Line
	6900 7950 7100 7950
Wire Wire Line
	6850 2850 7100 2850
Wire Bus Line
	1250 19950 7100 19950
Wire Wire Line
	1900 3200 1250 3200
Wire Wire Line
	1900 3000 1250 3000
Wire Wire Line
	1900 2250 1250 2250
Wire Wire Line
	1900 2050 1250 2050
Wire Wire Line
	2600 3200 2850 3200
Wire Wire Line
	2600 2250 2850 2250
Wire Wire Line
	3550 3050 4000 3050
Wire Wire Line
	3550 3200 3550 3050
Wire Wire Line
	3550 2650 4000 2650
Wire Wire Line
	4000 1800 1250 1800
Wire Wire Line
	4000 1600 1250 1600
Wire Wire Line
	4000 4100 1250 4100
Wire Wire Line
	4000 3900 1250 3900
Wire Wire Line
	4000 3700 1250 3700
Wire Wire Line
	4700 3050 5150 3050
Wire Wire Line
	5150 2650 4700 2650
Wire Wire Line
	5150 2850 4700 2850
Wire Wire Line
	6150 2850 5850 2850
Wire Wire Line
	3450 5700 1250 5700
Wire Wire Line
	1250 5350 2750 5350
Wire Wire Line
	2750 5150 1250 5150
Wire Wire Line
	2250 4650 2250 4950
Wire Wire Line
	2250 4950 2750 4950
Wire Wire Line
	1250 4650 1550 4650
Wire Wire Line
	1550 4450 1250 4450
Wire Wire Line
	2250 6850 1250 6850
Wire Wire Line
	1550 6150 1250 6150
Wire Wire Line
	1550 5950 1250 5950
Wire Wire Line
	6900 9000 7100 9000
Wire Wire Line
	6900 9800 7100 9800
Wire Wire Line
	6900 13850 7100 13850
Wire Wire Line
	6900 14650 7100 14650
Wire Wire Line
	6900 18250 7100 18250
Wire Wire Line
	6900 17450 7100 17450
Wire Wire Line
	6000 9800 1250 9800
Wire Wire Line
	1550 9200 1250 9200
Wire Wire Line
	3450 11550 4000 11550
Wire Wire Line
	3800 11950 4000 11950
Wire Wire Line
	3800 12400 3800 11950
Wire Wire Line
	4700 12400 3800 12400
Wire Wire Line
	2750 10850 2250 10850
Wire Wire Line
	4000 13100 3500 13100
Wire Wire Line
	2800 12900 2350 12900
Wire Wire Line
	2250 13100 2800 13100
Wire Wire Line
	5200 13650 5200 11750
Wire Wire Line
	5200 13850 1250 13850
Wire Wire Line
	6000 17450 3500 17450
Wire Wire Line
	3500 18250 6000 18250
Wire Wire Line
	5900 13850 6000 13850
Wire Wire Line
	1250 14650 1550 14650
Wire Wire Line
	2800 17200 1250 17200
Wire Wire Line
	2350 18450 2800 18450
Wire Wire Line
	2350 19950 2350 18450
Wire Wire Line
	4950 19550 5250 19550
Wire Wire Line
	4950 19950 4950 19550
Wire Wire Line
	3750 19550 4000 19550
Wire Wire Line
	3750 19950 3750 19550
Wire Wire Line
	2650 19550 2800 19550
Wire Wire Line
	2650 19950 2650 19550
Wire Wire Line
	1550 19150 1250 19150
Wire Wire Line
	1250 9650 850  9650
Wire Wire Line
	1250 9400 850  9400
Wire Wire Line
	1550 18250 1250 18250
Wire Wire Line
	1550 18050 1250 18050
Wire Wire Line
	2800 18250 2250 18250
Wire Wire Line
	2800 17000 1250 17000
Wire Wire Line
	1550 16100 1250 16100
Wire Wire Line
	1550 15900 1250 15900
Wire Wire Line
	2250 16800 2800 16800
Wire Wire Line
	2250 14650 6000 14650
Wire Wire Line
	1250 14450 1550 14450
Wire Wire Line
	1250 9000 1550 9000
Wire Wire Line
	1250 8800 1550 8800
Wire Wire Line
	6000 9000 2250 9000
Wire Wire Line
	1250 10850 1550 10850
Wire Wire Line
	1250 10650 1550 10650
Wire Wire Line
	1550 13100 1250 13100
Wire Wire Line
	1550 12900 1250 12900
Wire Wire Line
	1550 12000 1250 12000
Wire Wire Line
	1550 11800 1250 11800
Wire Wire Line
	2350 12000 2350 12900
Wire Wire Line
	2250 12000 2350 12000
Wire Wire Line
	4700 11750 5200 11750
Wire Wire Line
	7100 10750 7550 10750
Wire Wire Line
	7100 11050 7550 11050
Wire Wire Line
	7100 11350 7550 11350
Wire Wire Line
	7100 11650 7550 11650
Text Label 7200 10750 0    50   ~ 0
Y0
Text Label 7200 11050 0    50   ~ 0
Y1
Text Label 7200 11350 0    50   ~ 0
Y2
Text Label 7200 11650 0    50   ~ 0
Y3
Wire Bus Line
	1250 1300 1250 19950
Wire Bus Line
	7100 1300 7100 19950
Wire Wire Line
	3500 17000 3500 17450
Wire Wire Line
	3500 19350 3500 19950
Wire Wire Line
	4700 19350 4700 19950
Wire Wire Line
	5950 19350 5950 19950
Wire Wire Line
	2250 19350 2250 19950
Wire Wire Line
	2250 16100 2250 16800
Wire Wire Line
	4700 12400 4700 13100
Wire Wire Line
	3450 10850 3450 11550
Wire Wire Line
	2250 6150 2250 6850
Wire Wire Line
	3450 5150 3450 5700
Wire Wire Line
	4700 3050 4700 3900
Wire Wire Line
	4700 1800 4700 2650
Wire Wire Line
	3550 2250 3550 2650
$EndSCHEMATC
