EESchema Schematic File Version 2
LIBS:power
LIBS:device
LIBS:transistors
LIBS:conn
LIBS:linear
LIBS:regul
LIBS:74xx
LIBS:cmos4000
LIBS:adc-dac
LIBS:memory
LIBS:xilinx
LIBS:microcontrollers
LIBS:dsp
LIBS:microchip
LIBS:analog_switches
LIBS:motorola
LIBS:texas
LIBS:intel
LIBS:audio
LIBS:interface
LIBS:digital-audio
LIBS:philips
LIBS:display
LIBS:cypress
LIBS:siliconi
LIBS:opto
LIBS:atmel
LIBS:contrib
LIBS:valves
LIBS:scheme_2_PSU-cache
EELAYER 25 0
EELAYER END
$Descr User 9000 22000
encoding utf-8
Sheet 1 1
Title ""
Date ""
Rev ""
Comp ""
Comment1 ""
Comment2 ""
Comment3 ""
Comment4 ""
$EndDescr
$Comp
L Triggers:DD_RS_ASYNC_E_1 DD?
U 1 1 5ACAE2C0
P 6600 5900
F 0 "DD?" H 6600 6717 70  0001 C CNN
F 1 "2" H 6600 6596 70  0001 C CNN
F 2 "" H 6700 6200 70  0001 C CNN
F 3 "" H 6700 6200 70  0001 C CNN
	1    6600 5900
	1    0    0    -1  
$EndComp
$Comp
L Triggers:DD_RS_ASYNC_E_1 DD?
U 1 1 5ACAEFFA
P 6600 9800
F 0 "DD?" H 6600 10617 70  0001 C CNN
F 1 "DD_RS_ASYNC_E_1" H 6600 10496 70  0001 C CNN
F 2 "" H 6700 10100 70  0001 C CNN
F 3 "" H 6700 10100 70  0001 C CNN
	1    6600 9800
	1    0    0    -1  
$EndComp
Text Label 1050 9400 0    50   ~ 0
C
Text Label 1050 9650 0    50   ~ 0
X1
$Comp
L Logic:DD_NOR3_1 D?
U 1 1 5ACCB371
P 6700 11250
F 0 "D?" H 6700 11867 70  0001 C CNN
F 1 "0" H 6700 11746 70  0001 C CNN
F 2 "" H 6700 11350 70  0001 C CNN
F 3 "" H 6700 11350 70  0001 C CNN
	1    6700 11250
	1    0    0    -1  
$EndComp
$Comp
L Power:+5V #PWR0113
U 1 1 5ACCC91A
P 6350 11250
F 0 "#PWR0113" V 6352 11654 70  0001 L CNN
F 1 "+5V" V 6352 11654 70  0001 L CNN
F 2 "" H 6350 11250 70  0001 C CNN
F 3 "" H 6350 11250 70  0001 C CNN
	1    6350 11250
	0    -1   -1   0   
$EndComp
$Comp
L Power:+5V #PWR0114
U 1 1 5ACCC925
P 6350 11450
F 0 "#PWR0114" V 6352 11854 70  0001 L CNN
F 1 "+5V" V 6352 11854 70  0001 L CNN
F 2 "" H 6350 11450 70  0001 C CNN
F 3 "" H 6350 11450 70  0001 C CNN
	1    6350 11450
	0    -1   -1   0   
$EndComp
Text Label 6300 11050 0    50   ~ 0
C
Text Label 7050 6300 0    50   ~ 0
¬Q1
Text Label 7050 5500 0    50   ~ 0
Q1
Text Label 7050 7300 0    50   ~ 0
Q2
Text Label 7050 10200 0    50   ~ 0
¬Q3
Text Label 7100 9400 0    50   ~ 0
Q3
Text Label 7450 7550 0    50   ~ 0
Y0
Text Label 7450 7700 0    50   ~ 0
Y1
Text Label 7450 7850 0    50   ~ 0
Y2
Text Label 7450 8000 0    50   ~ 0
Y3
Text Label 1050 9950 0    50   ~ 0
X2
Text Label 1050 10250 0    50   ~ 0
X3
Text Label 1350 6000 0    50   ~ 0
¬C
$Comp
L Power:+5V #PWR0121
U 1 1 5ACB9A7F
P 1550 6200
F 0 "#PWR0121" V 1552 6604 70  0001 L CNN
F 1 "+5V" V 1552 6604 70  0001 L CNN
F 2 "" H 1550 6200 70  0001 C CNN
F 3 "" H 1550 6200 70  0001 C CNN
	1    1550 6200
	0    -1   -1   0   
$EndComp
Text Label 1350 5800 0    50   ~ 0
Q3
$Comp
L Logic:DD_NOR3_1 D?
U 1 1 5ACB8F14
P 1900 6000
F 0 "D?" H 1900 6617 70  0001 C CNN
F 1 "0" H 1900 6496 70  0001 C CNN
F 2 "" H 1900 6100 70  0001 C CNN
F 3 "" H 1900 6100 70  0001 C CNN
	1    1900 6000
	1    0    0    -1  
$EndComp
$Comp
L Triggers:DD_RS_ASYNC_E_1 DD?
U 1 1 5ACAEFEF
P 6600 7700
F 0 "DD?" H 6600 8517 70  0001 C CNN
F 1 "DD_RS_ASYNC_E_1" H 6600 8396 70  0001 C CNN
F 2 "" H 6700 8000 70  0001 C CNN
F 3 "" H 6700 8000 70  0001 C CNN
	1    6600 7700
	1    0    0    -1  
$EndComp
$Comp
L Power:+5V #PWR?
U 1 1 5AE2DBD3
P 1800 9650
F 0 "#PWR?" H 1800 9550 70  0001 C CNN
F 1 "+5V" H 1800 9450 70  0001 C CNN
F 2 "" H 1800 9650 70  0001 C CNN
F 3 "" H 1800 9650 70  0001 C CNN
	1    1800 9650
	0    -1   1    0   
$EndComp
$Comp
L Power:+5V #PWR?
U 1 1 5AE2E4A9
P 1800 10050
F 0 "#PWR?" H 1800 9950 70  0001 C CNN
F 1 "+5V" H 1800 9850 70  0001 C CNN
F 2 "" H 1800 10050 70  0001 C CNN
F 3 "" H 1800 10050 70  0001 C CNN
	1    1800 10050
	0    -1   -1   0   
$EndComp
Text Label 1350 11300 0    50   ~ 0
Y0
Text Label 1350 11050 0    50   ~ 0
Y1
Text Label 1350 10800 0    50   ~ 0
Y2
Text Label 1350 10550 0    50   ~ 0
Y3
Text Label 1350 6700 0    50   ~ 0
Y'K2
Text Label 7000 8450 0    50   ~ 0
Y'K2
Text Label 1350 8850 0    50   ~ 0
Q2
Text Label 1350 8450 0    50   ~ 0
Q1
Text Label 1350 9250 0    50   ~ 0
Q3
Text Label 1350 7250 0    50   ~ 0
X1
Text Label 1350 7650 0    50   ~ 0
X2
Text Label 1350 8050 0    50   ~ 0
X3
$Comp
L Logic:DD_NOR3_1 D?
U 1 1 5AE538D5
P 5800 5700
F 0 "D?" H 5800 6317 70  0001 C CNN
F 1 "0" H 5800 6196 70  0001 C CNN
F 2 "" H 5800 5800 70  0001 C CNN
F 3 "" H 5800 5800 70  0001 C CNN
	1    5800 5700
	1    0    0    -1  
$EndComp
$Comp
L Power:+5V #PWR?
U 1 1 5AE55649
P 5450 5700
F 0 "#PWR?" V 5452 6104 70  0001 L CNN
F 1 "+5V" V 5452 6104 70  0001 L CNN
F 2 "" H 5450 5700 70  0001 C CNN
F 3 "" H 5450 5700 70  0001 C CNN
	1    5450 5700
	0    -1   -1   0   
$EndComp
Text Label 1350 5500 0    50   ~ 0
¬C
$Comp
L Logic:DD_NOR3_1 D?
U 1 1 5AE568E2
P 5800 7200
F 0 "D?" H 5800 7817 70  0001 C CNN
F 1 "0" H 5800 7696 70  0001 C CNN
F 2 "" H 5800 7300 70  0001 C CNN
F 3 "" H 5800 7300 70  0001 C CNN
	1    5800 7200
	1    0    0    -1  
$EndComp
$Comp
L Logic:DD_NOR3_1 D?
U 1 1 5AE568ED
P 5800 9300
F 0 "D?" H 5800 9917 70  0001 C CNN
F 1 "0" H 5800 9796 70  0001 C CNN
F 2 "" H 5800 9400 70  0001 C CNN
F 3 "" H 5800 9400 70  0001 C CNN
	1    5800 9300
	1    0    0    -1  
$EndComp
$Comp
L Logic:DD_NOR3_1 D?
U 1 1 5AE56903
P 5800 10300
F 0 "D?" H 5800 10917 70  0001 C CNN
F 1 "0" H 5800 10796 70  0001 C CNN
F 2 "" H 5800 10400 70  0001 C CNN
F 3 "" H 5800 10400 70  0001 C CNN
	1    5800 10300
	1    0    0    -1  
$EndComp
$Comp
L Power:+5V #PWR?
U 1 1 5AE575E0
P 5450 10100
F 0 "#PWR?" H 5450 10000 70  0001 C CNN
F 1 "+5V" H 5450 9900 70  0001 C CNN
F 2 "" H 5450 10100 70  0001 C CNN
F 3 "" H 5450 10100 70  0001 C CNN
	1    5450 10100
	0    -1   1    0   
$EndComp
Text Label 5450 10500 0    50   ~ 0
¬C
$Comp
L Power:+5V #PWR?
U 1 1 5AE5BC5F
P 5450 9500
F 0 "#PWR?" H 5450 9400 70  0001 C CNN
F 1 "+5V" H 5450 9300 70  0001 C CNN
F 2 "" H 5450 9500 70  0001 C CNN
F 3 "" H 5450 9500 70  0001 C CNN
	1    5450 9500
	0    -1   1    0   
$EndComp
Text Label 7050 6750 0    50   ~ 0
¬C
Text Label 7050 8850 0    50   ~ 0
¬C
Text Label 7050 10750 0    50   ~ 0
¬C
Text Label 7050 11250 0    50   ~ 0
¬C
$Comp
L Power:+5V #PWR?
U 1 1 5AE934CC
P 5450 7200
F 0 "#PWR?" H 5450 7100 70  0001 C CNN
F 1 "+5V" H 5450 7000 70  0001 C CNN
F 2 "" H 5450 7200 70  0001 C CNN
F 3 "" H 5450 7200 70  0001 C CNN
	1    5450 7200
	0    -1   1    0   
$EndComp
Text Label 5450 5500 0    50   ~ 0
¬C
Text Label 5450 9100 0    50   ~ 0
¬C
Text Label 5450 7000 0    50   ~ 0
¬C
Text Label 7100 6550 0    50   ~ 0
C
Entry Wire Line
	1250 6600 1350 6700
Entry Wire Line
	1250 5700 1350 5800
Entry Wire Line
	1250 5400 1350 5500
Entry Wire Line
	1250 5900 1350 6000
Entry Wire Line
	1250 9150 1350 9250
Entry Wire Line
	1250 8750 1350 8850
Entry Wire Line
	1250 8350 1350 8450
Entry Wire Line
	1250 7950 1350 8050
Entry Wire Line
	1250 7550 1350 7650
Entry Wire Line
	1250 7150 1350 7250
Entry Wire Line
	7150 5500 7250 5600
Entry Wire Line
	7150 6300 7250 6400
Entry Wire Line
	7150 6550 7250 6650
Entry Wire Line
	7150 6750 7250 6850
Entry Wire Line
	7150 7300 7250 7400
Entry Wire Line
	7150 8100 7250 8200
Entry Wire Line
	7150 8450 7250 8550
Entry Wire Line
	7150 8850 7250 8950
Entry Wire Line
	7150 9400 7250 9500
Entry Wire Line
	7150 10200 7250 10300
Entry Wire Line
	7150 10750 7250 10850
Text Label 7050 8100 0    50   ~ 0
¬Q2
$Comp
L Logic:DD_NOR3_1 D?
U 1 1 5AF02D76
P 4700 6000
F 0 "D?" H 4700 6617 70  0001 C CNN
F 1 "0" H 4700 6496 70  0001 C CNN
F 2 "" H 4700 6100 70  0001 C CNN
F 3 "" H 4700 6100 70  0001 C CNN
	1    4700 6000
	1    0    0    -1  
$EndComp
$Comp
L Logic:DD_NOR3_1 D?
U 1 1 5AF02D81
P 4700 7500
F 0 "D?" H 4700 8117 70  0001 C CNN
F 1 "0" H 4700 7996 70  0001 C CNN
F 2 "" H 4700 7600 70  0001 C CNN
F 3 "" H 4700 7600 70  0001 C CNN
	1    4700 7500
	1    0    0    -1  
$EndComp
$Comp
L Logic:DD_NOR3_1 D?
U 1 1 5AF02D8C
P 4700 9100
F 0 "D?" H 4700 9717 70  0001 C CNN
F 1 "0" H 4700 9596 70  0001 C CNN
F 2 "" H 4700 9200 70  0001 C CNN
F 3 "" H 4700 9200 70  0001 C CNN
	1    4700 9100
	1    0    0    -1  
$EndComp
$Comp
L Logic:DD_NOR3_1 D?
U 1 1 5AF02D97
P 4700 10500
F 0 "D?" H 4700 11117 70  0001 C CNN
F 1 "0" H 4700 10996 70  0001 C CNN
F 2 "" H 4700 10600 70  0001 C CNN
F 3 "" H 4700 10600 70  0001 C CNN
	1    4700 10500
	1    0    0    -1  
$EndComp
$Comp
L Power:+5V #PWR?
U 1 1 5AF03091
P 4350 9300
F 0 "#PWR?" H 4350 9200 70  0001 C CNN
F 1 "+5V" H 4350 9100 70  0001 C CNN
F 2 "" H 4350 9300 70  0001 C CNN
F 3 "" H 4350 9300 70  0001 C CNN
	1    4350 9300
	0    -1   1    0   
$EndComp
$Comp
L Power:+5V #PWR?
U 1 1 5AF0309C
P 4350 9100
F 0 "#PWR?" H 4350 9000 70  0001 C CNN
F 1 "+5V" H 4350 8900 70  0001 C CNN
F 2 "" H 4350 9100 70  0001 C CNN
F 3 "" H 4350 9100 70  0001 C CNN
	1    4350 9100
	0    -1   1    0   
$EndComp
$Comp
L Power:+5V #PWR?
U 1 1 5AF030A7
P 4350 7700
F 0 "#PWR?" H 4350 7600 70  0001 C CNN
F 1 "+5V" H 4350 7500 70  0001 C CNN
F 2 "" H 4350 7700 70  0001 C CNN
F 3 "" H 4350 7700 70  0001 C CNN
	1    4350 7700
	0    -1   1    0   
$EndComp
$Comp
L Power:+5V #PWR?
U 1 1 5AF030B2
P 4350 7500
F 0 "#PWR?" H 4350 7400 70  0001 C CNN
F 1 "+5V" H 4350 7300 70  0001 C CNN
F 2 "" H 4350 7500 70  0001 C CNN
F 3 "" H 4350 7500 70  0001 C CNN
	1    4350 7500
	0    -1   1    0   
$EndComp
$Comp
L Power:+5V #PWR?
U 1 1 5AF030BD
P 4350 6200
F 0 "#PWR?" H 4350 6100 70  0001 C CNN
F 1 "+5V" H 4350 6000 70  0001 C CNN
F 2 "" H 4350 6200 70  0001 C CNN
F 3 "" H 4350 6200 70  0001 C CNN
	1    4350 6200
	0    -1   1    0   
$EndComp
$Comp
L Power:+5V #PWR?
U 1 1 5AF030C8
P 4350 6000
F 0 "#PWR?" H 4350 5900 70  0001 C CNN
F 1 "+5V" H 4350 5800 70  0001 C CNN
F 2 "" H 4350 6000 70  0001 C CNN
F 3 "" H 4350 6000 70  0001 C CNN
	1    4350 6000
	0    -1   1    0   
$EndComp
Entry Wire Line
	1250 10450 1350 10550
Entry Wire Line
	1250 10700 1350 10800
Entry Wire Line
	1250 10950 1350 11050
Entry Wire Line
	1250 11200 1350 11300
Entry Wire Line
	1150 9400 1250 9500
Entry Wire Line
	1150 9650 1250 9750
Entry Wire Line
	1150 9950 1250 10050
Entry Wire Line
	1150 10250 1250 10350
Entry Wire Line
	7150 11250 7250 11350
Entry Wire Line
	5850 11700 5950 11800
Text Label 5850 11700 0    50   ~ 0
C
Entry Wire Line
	7250 7450 7350 7550
Entry Wire Line
	7250 7600 7350 7700
Entry Wire Line
	7250 7750 7350 7850
Entry Wire Line
	7250 7900 7350 8000
Wire Wire Line
	1150 9650 750  9650
Wire Wire Line
	1150 9400 750  9400
Wire Wire Line
	7350 7700 7800 7700
Wire Wire Line
	7350 7850 7800 7850
Wire Wire Line
	1150 9950 750  9950
Wire Wire Line
	1150 10250 750  10250
Wire Wire Line
	7350 7550 7800 7550
Wire Wire Line
	2250 6000 2250 6700
Wire Bus Line
	7250 11800 7250 5350
Wire Wire Line
	5450 10750 5450 10500
Wire Wire Line
	7350 8000 7800 8000
Wire Wire Line
	5050 5900 5450 5900
Wire Wire Line
	6150 5700 6150 5500
Wire Wire Line
	6150 8450 6150 8100
Wire Wire Line
	6150 6300 6150 6550
Wire Wire Line
	2250 6700 1350 6700
Wire Wire Line
	1550 5800 1350 5800
Wire Wire Line
	1350 6000 1550 6000
Wire Wire Line
	1350 5500 5450 5500
Wire Wire Line
	1350 7250 1800 7250
Wire Wire Line
	1350 7650 1800 7650
Wire Wire Line
	1350 8050 1800 8050
Wire Wire Line
	1350 8450 1800 8450
Wire Wire Line
	1350 8850 1800 8850
Wire Wire Line
	1350 9250 1800 9250
Wire Wire Line
	7150 10200 7050 10200
Wire Wire Line
	7150 9400 7050 9400
Wire Wire Line
	7150 8850 5450 8850
Wire Wire Line
	7150 8450 6150 8450
Wire Wire Line
	7150 8100 7050 8100
Wire Wire Line
	7150 7300 7050 7300
Wire Wire Line
	7150 6750 5450 6750
Wire Wire Line
	6150 6550 7150 6550
Wire Wire Line
	7150 6300 7050 6300
Wire Wire Line
	7150 5500 7050 5500
Wire Wire Line
	6150 10200 6150 10300
Wire Wire Line
	6150 9400 6150 9300
Wire Wire Line
	5450 8850 5450 9100
Wire Wire Line
	5450 6750 5450 7000
Wire Wire Line
	5450 10750 7150 10750
Wire Wire Line
	6150 7200 6150 7300
Wire Wire Line
	5050 9100 5050 9300
Wire Wire Line
	5050 9300 5450 9300
Wire Wire Line
	5050 10500 5050 10300
Wire Wire Line
	5050 10300 5450 10300
Wire Wire Line
	5050 7500 5050 7400
Wire Wire Line
	5050 7400 5450 7400
Wire Wire Line
	5050 6000 5050 5900
Wire Wire Line
	3450 7650 3950 7650
Wire Wire Line
	3950 7650 3950 7300
Wire Wire Line
	3950 7300 4350 7300
Wire Wire Line
	3450 8450 3850 8450
Wire Wire Line
	3850 8450 3850 10300
Wire Wire Line
	3850 10300 4350 10300
Wire Wire Line
	3450 10050 3450 10550
Wire Wire Line
	3450 10550 1350 10550
Wire Wire Line
	3450 9650 3550 9650
Wire Wire Line
	3550 9650 3550 10800
Wire Wire Line
	3550 10800 1350 10800
Wire Wire Line
	3450 9250 3650 9250
Wire Wire Line
	3650 9250 3650 11050
Wire Wire Line
	3650 11050 1350 11050
Wire Wire Line
	3450 8850 3750 8850
Wire Wire Line
	3750 8850 3750 11300
Wire Wire Line
	3750 11300 1350 11300
Wire Wire Line
	7050 11250 7150 11250
Wire Bus Line
	1250 5350 1250 11800
Wire Bus Line
	1250 11800 7250 11800
Wire Wire Line
	5850 11700 5850 11050
Wire Wire Line
	5850 11050 6350 11050
Wire Wire Line
	3950 8900 4350 8900
Wire Wire Line
	3950 8900 3950 8050
Wire Wire Line
	3950 8050 3450 8050
Wire Wire Line
	3850 7250 3450 7250
Wire Wire Line
	3850 7250 3850 5800
Wire Wire Line
	3850 5800 4350 5800
$Comp
L Power:+5V #PWR?
U 1 1 5AF03B95
P 4350 10500
F 0 "#PWR?" H 4350 10400 70  0001 C CNN
F 1 "+5V" H 4350 10300 70  0001 C CNN
F 2 "" H 4350 10500 70  0001 C CNN
F 3 "" H 4350 10500 70  0001 C CNN
	1    4350 10500
	0    -1   1    0   
$EndComp
$Comp
L Power:+5V #PWR?
U 1 1 5AF03BA0
P 4350 10700
F 0 "#PWR?" H 4350 10600 70  0001 C CNN
F 1 "+5V" H 4350 10500 70  0001 C CNN
F 2 "" H 4350 10700 70  0001 C CNN
F 3 "" H 4350 10700 70  0001 C CNN
	1    4350 10700
	0    -1   1    0   
$EndComp
$Comp
L MyLib:ПЗУ U?
U 1 1 5AF01DDC
P 2650 8650
F 0 "U?" H 2700 10350 50  0001 C CNN
F 1 "MyLib:ПЗУ" H 2650 10550 157 0001 C CNN
F 2 "" H 2650 9650 50  0001 C CNN
F 3 "" H 2650 9650 50  0001 C CNN
	1    2650 8650
	1    0    0    -1  
$EndComp
$EndSCHEMATC
