EESchema Schematic File Version 2
LIBS:power
LIBS:device
LIBS:transistors
LIBS:conn
LIBS:linear
LIBS:regul
LIBS:74xx
LIBS:cmos4000
LIBS:adc-dac
LIBS:memory
LIBS:xilinx
LIBS:microcontrollers
LIBS:dsp
LIBS:microchip
LIBS:analog_switches
LIBS:motorola
LIBS:texas
LIBS:intel
LIBS:audio
LIBS:interface
LIBS:digital-audio
LIBS:philips
LIBS:display
LIBS:cypress
LIBS:siliconi
LIBS:opto
LIBS:atmel
LIBS:contrib
LIBS:valves
LIBS:scheme-cache
EELAYER 25 0
EELAYER END
$Descr User 9000 22000
encoding utf-8
Sheet 1 1
Title ""
Date ""
Rev ""
Comp ""
Comment1 ""
Comment2 ""
Comment3 ""
Comment4 ""
$EndDescr
$Comp
L Triggers:DD_RS_ASYNC_E_1 DD?
U 1 1 5ACAE2C0
P 6150 5850
F 0 "DD?" H 6150 6667 70  0001 C CNN
F 1 "2" H 6150 6546 70  0001 C CNN
F 2 "" H 6250 6150 70  0001 C CNN
F 3 "" H 6250 6150 70  0001 C CNN
	1    6150 5850
	1    0    0    -1  
$EndComp
$Comp
L Triggers:DD_RS_ASYNC_E_1 DD?
U 1 1 5ACAEFFA
P 6150 9750
F 0 "DD?" H 6150 10567 70  0001 C CNN
F 1 "DD_RS_ASYNC_E_1" H 6150 10446 70  0001 C CNN
F 2 "" H 6250 10050 70  0001 C CNN
F 3 "" H 6250 10050 70  0001 C CNN
	1    6150 9750
	1    0    0    -1  
$EndComp
Text Label 1050 12900 0    50   ~ 0
C
Text Label 1050 13200 0    50   ~ 0
X1
$Comp
L Logic:DD_NOR3_1 D?
U 1 1 5ACCB371
P 1900 14350
F 0 "D?" H 1900 14967 70  0001 C CNN
F 1 "0" H 1900 14846 70  0001 C CNN
F 2 "" H 1900 14450 70  0001 C CNN
F 3 "" H 1900 14450 70  0001 C CNN
	1    1900 14350
	1    0    0    -1  
$EndComp
$Comp
L Power:+5V #PWR0113
U 1 1 5ACCC91A
P 1550 14350
F 0 "#PWR0113" V 1552 14754 70  0001 L CNN
F 1 "+5V" V 1552 14754 70  0001 L CNN
F 2 "" H 1550 14350 70  0001 C CNN
F 3 "" H 1550 14350 70  0001 C CNN
	1    1550 14350
	0    -1   -1   0   
$EndComp
$Comp
L Power:+5V #PWR0114
U 1 1 5ACCC925
P 1550 14550
F 0 "#PWR0114" V 1552 14954 70  0001 L CNN
F 1 "+5V" V 1552 14954 70  0001 L CNN
F 2 "" H 1550 14550 70  0001 C CNN
F 3 "" H 1550 14550 70  0001 C CNN
	1    1550 14550
	0    -1   -1   0   
$EndComp
Text Label 1350 14150 0    50   ~ 0
C
Text Label 6600 6250 0    50   ~ 0
¬Q1
Text Label 6600 5450 0    50   ~ 0
Q1
Text Label 6600 7250 0    50   ~ 0
Q2
Text Label 6600 8050 0    50   ~ 0
¬Q2
Text Label 6600 10150 0    50   ~ 0
¬Q3
Text Label 6600 9350 0    50   ~ 0
Q3
Text Label 7000 13800 0    50   ~ 0
Y0
Text Label 7000 14100 0    50   ~ 0
Y1
Text Label 7000 14400 0    50   ~ 0
Y2
Text Label 7000 14700 0    50   ~ 0
Y3
Text Label 1050 13500 0    50   ~ 0
X2
Text Label 1050 13800 0    50   ~ 0
X3
Text Label 1350 6000 0    50   ~ 0
¬C
$Comp
L Power:+5V #PWR0121
U 1 1 5ACB9A7F
P 1550 6200
F 0 "#PWR0121" V 1552 6604 70  0001 L CNN
F 1 "+5V" V 1552 6604 70  0001 L CNN
F 2 "" H 1550 6200 70  0001 C CNN
F 3 "" H 1550 6200 70  0001 C CNN
	1    1550 6200
	0    -1   -1   0   
$EndComp
Text Label 1350 5800 0    50   ~ 0
Q3
$Comp
L Logic:DD_NOR3_1 D?
U 1 1 5ACB8F14
P 1900 6000
F 0 "D?" H 1900 6617 70  0001 C CNN
F 1 "0" H 1900 6496 70  0001 C CNN
F 2 "" H 1900 6100 70  0001 C CNN
F 3 "" H 1900 6100 70  0001 C CNN
	1    1900 6000
	1    0    0    -1  
$EndComp
$Comp
L MyLib:ПЛМ U?
U 1 1 5AE23B37
P 2650 12150
F 0 "U?" H 2700 13850 50  0001 C CNN
F 1 "ПЛМ" H 2625 13911 157 0001 C CNN
F 2 "" H 2650 13150 50  0001 C CNN
F 3 "" H 2650 13150 50  0001 C CNN
	1    2650 12150
	1    0    0    -1  
$EndComp
$Comp
L Triggers:DD_RS_ASYNC_E_1 DD?
U 1 1 5ACAEFEF
P 6150 7650
F 0 "DD?" H 6150 8467 70  0001 C CNN
F 1 "DD_RS_ASYNC_E_1" H 6150 8346 70  0001 C CNN
F 2 "" H 6250 7950 70  0001 C CNN
F 3 "" H 6250 7950 70  0001 C CNN
	1    6150 7650
	1    0    0    -1  
$EndComp
$Comp
L Power:+5V #PWR?
U 1 1 5AE2DBD3
P 1800 9650
F 0 "#PWR?" H 1800 9550 70  0001 C CNN
F 1 "+5V" H 1800 9450 70  0001 C CNN
F 2 "" H 1800 9650 70  0001 C CNN
F 3 "" H 1800 9650 70  0001 C CNN
	1    1800 9650
	0    -1   1    0   
$EndComp
$Comp
L Power:+5V #PWR?
U 1 1 5AE2E4A9
P 1800 10050
F 0 "#PWR?" H 1800 9950 70  0001 C CNN
F 1 "+5V" H 1800 9850 70  0001 C CNN
F 2 "" H 1800 10050 70  0001 C CNN
F 3 "" H 1800 10050 70  0001 C CNN
	1    1800 10050
	0    -1   -1   0   
$EndComp
$Comp
L Power:+5V #PWR?
U 1 1 5AE2E4B4
P 1800 13150
F 0 "#PWR?" H 1800 13050 70  0001 C CNN
F 1 "+5V" H 1800 12950 70  0001 C CNN
F 2 "" H 1800 13150 70  0001 C CNN
F 3 "" H 1800 13150 70  0001 C CNN
	1    1800 13150
	0    -1   -1   0   
$EndComp
$Comp
L Power:+5V #PWR?
U 1 1 5AE2E4BF
P 1800 13550
F 0 "#PWR?" H 1800 13450 70  0001 C CNN
F 1 "+5V" H 1800 13350 70  0001 C CNN
F 2 "" H 1800 13550 70  0001 C CNN
F 3 "" H 1800 13550 70  0001 C CNN
	1    1800 13550
	0    -1   -1   0   
$EndComp
Text Label 6600 10950 0    50   ~ 0
Y0
Text Label 6600 11750 0    50   ~ 0
Y1
Text Label 6600 12550 0    50   ~ 0
Y2
Text Label 6600 13350 0    50   ~ 0
Y3
Text Label 1350 6700 0    50   ~ 0
Y'K2
Text Label 6550 8400 0    50   ~ 0
Y'K2
Text Label 1350 10750 0    50   ~ 0
X1
Text Label 1350 11150 0    50   ~ 0
X2
Text Label 1350 11550 0    50   ~ 0
X3
Text Label 1350 12750 0    50   ~ 0
Q3
Text Label 1350 8850 0    50   ~ 0
Q2
Text Label 1350 8450 0    50   ~ 0
Q1
Text Label 1350 9250 0    50   ~ 0
Q3
Text Label 1350 7250 0    50   ~ 0
X1
Text Label 1350 7650 0    50   ~ 0
X2
Text Label 1350 8050 0    50   ~ 0
X3
Text Label 1350 12350 0    50   ~ 0
Q2
Text Label 1350 11950 0    50   ~ 0
Q1
$Comp
L MyLib:ПЛМ U?
U 1 1 5AE4D72F
P 2650 8650
F 0 "U?" H 2700 10350 50  0001 C CNN
F 1 "ПЛМ" H 2625 10411 157 0001 C CNN
F 2 "" H 2650 9650 50  0001 C CNN
F 3 "" H 2650 9650 50  0001 C CNN
	1    2650 8650
	1    0    0    -1  
$EndComp
$Comp
L Logic:DD_NOR3_1 D?
U 1 1 5AE538D5
P 5350 5650
F 0 "D?" H 5350 6267 70  0001 C CNN
F 1 "0" H 5350 6146 70  0001 C CNN
F 2 "" H 5350 5750 70  0001 C CNN
F 3 "" H 5350 5750 70  0001 C CNN
	1    5350 5650
	1    0    0    -1  
$EndComp
$Comp
L Power:+5V #PWR?
U 1 1 5AE55649
P 5000 5650
F 0 "#PWR?" V 5002 6054 70  0001 L CNN
F 1 "+5V" V 5002 6054 70  0001 L CNN
F 2 "" H 5000 5650 70  0001 C CNN
F 3 "" H 5000 5650 70  0001 C CNN
	1    5000 5650
	0    -1   -1   0   
$EndComp
Text Label 1350 5450 0    50   ~ 0
¬C
Text Label 5700 6250 0    50   ~ 0
C
$Comp
L Logic:DD_NOR3_1 D?
U 1 1 5AE568E2
P 5350 7250
F 0 "D?" H 5350 7867 70  0001 C CNN
F 1 "0" H 5350 7746 70  0001 C CNN
F 2 "" H 5350 7350 70  0001 C CNN
F 3 "" H 5350 7350 70  0001 C CNN
	1    5350 7250
	1    0    0    -1  
$EndComp
$Comp
L Logic:DD_NOR3_1 D?
U 1 1 5AE568ED
P 5350 9250
F 0 "D?" H 5350 9867 70  0001 C CNN
F 1 "0" H 5350 9746 70  0001 C CNN
F 2 "" H 5350 9350 70  0001 C CNN
F 3 "" H 5350 9350 70  0001 C CNN
	1    5350 9250
	1    0    0    -1  
$EndComp
$Comp
L Logic:DD_NOR3_1 D?
U 1 1 5AE56903
P 5350 10250
F 0 "D?" H 5350 10867 70  0001 C CNN
F 1 "0" H 5350 10746 70  0001 C CNN
F 2 "" H 5350 10350 70  0001 C CNN
F 3 "" H 5350 10350 70  0001 C CNN
	1    5350 10250
	1    0    0    -1  
$EndComp
$Comp
L Power:+5V #PWR?
U 1 1 5AE575E0
P 5000 10050
F 0 "#PWR?" H 5000 9950 70  0001 C CNN
F 1 "+5V" H 5000 9850 70  0001 C CNN
F 2 "" H 5000 10050 70  0001 C CNN
F 3 "" H 5000 10050 70  0001 C CNN
	1    5000 10050
	0    -1   1    0   
$EndComp
Text Label 5000 10450 0    50   ~ 0
¬C
$Comp
L Power:+5V #PWR?
U 1 1 5AE5BC5F
P 5000 9450
F 0 "#PWR?" H 5000 9350 70  0001 C CNN
F 1 "+5V" H 5000 9250 70  0001 C CNN
F 2 "" H 5000 9450 70  0001 C CNN
F 3 "" H 5000 9450 70  0001 C CNN
	1    5000 9450
	0    -1   1    0   
$EndComp
Text Label 6600 6700 0    50   ~ 0
¬C
Text Label 6600 8750 0    50   ~ 0
¬C
Text Label 6600 10750 0    50   ~ 0
¬C
Text Label 2250 14850 0    50   ~ 0
¬C
$Comp
L Power:+5V #PWR?
U 1 1 5AE934CC
P 5000 7250
F 0 "#PWR?" H 5000 7150 70  0001 C CNN
F 1 "+5V" H 5000 7050 70  0001 C CNN
F 2 "" H 5000 7250 70  0001 C CNN
F 3 "" H 5000 7250 70  0001 C CNN
	1    5000 7250
	0    -1   1    0   
$EndComp
Text Label 5000 5450 0    50   ~ 0
¬C
Text Label 5000 9050 0    50   ~ 0
¬C
Text Label 5000 7050 0    50   ~ 0
¬C
Text Label 6650 6550 0    50   ~ 0
C
Entry Wire Line
	1250 10650 1350 10750
Entry Wire Line
	1250 11050 1350 11150
Entry Wire Line
	1250 11450 1350 11550
Entry Wire Line
	1250 11850 1350 11950
Entry Wire Line
	1250 12250 1350 12350
Entry Wire Line
	1250 12650 1350 12750
Entry Wire Line
	1250 14050 1350 14150
Entry Wire Line
	2250 14850 2350 14950
Entry Wire Line
	1150 12900 1250 13000
Entry Wire Line
	1150 13200 1250 13300
Entry Wire Line
	1150 13500 1250 13600
Entry Wire Line
	1150 13800 1250 13900
Entry Wire Line
	1250 9150 1350 9250
Entry Wire Line
	1250 8750 1350 8850
Entry Wire Line
	1250 8350 1350 8450
Entry Wire Line
	1250 7950 1350 8050
Entry Wire Line
	1250 7550 1350 7650
Entry Wire Line
	1250 7150 1350 7250
Entry Wire Line
	1250 5700 1350 5800
Entry Wire Line
	1250 5900 1350 6000
Entry Wire Line
	1250 6600 1350 6700
Entry Wire Line
	1250 5350 1350 5450
Entry Wire Line
	6800 13700 6900 13800
Entry Wire Line
	6800 14000 6900 14100
Entry Wire Line
	6800 14300 6900 14400
Entry Wire Line
	6800 14600 6900 14700
Entry Wire Line
	6700 9350 6800 9450
Entry Wire Line
	6700 10150 6800 10250
$Comp
L Logic:DD_NOR3_1 D?
U 1 1 5AF08122
P 4450 7550
F 0 "D?" H 4450 8167 70  0001 C CNN
F 1 "0" H 4450 8046 70  0001 C CNN
F 2 "" H 4450 7650 70  0001 C CNN
F 3 "" H 4450 7650 70  0001 C CNN
	1    4450 7550
	1    0    0    -1  
$EndComp
$Comp
L Logic:DD_NOR3_1 D?
U 1 1 5AF0812D
P 4450 5950
F 0 "D?" H 4450 6567 70  0001 C CNN
F 1 "0" H 4450 6446 70  0001 C CNN
F 2 "" H 4450 6050 70  0001 C CNN
F 3 "" H 4450 6050 70  0001 C CNN
	1    4450 5950
	1    0    0    -1  
$EndComp
$Comp
L Logic:DD_NOR3_1 D?
U 1 1 5AF0814E
P 4450 9250
F 0 "D?" H 4450 9867 70  0001 C CNN
F 1 "0" H 4450 9746 70  0001 C CNN
F 2 "" H 4450 9350 70  0001 C CNN
F 3 "" H 4450 9350 70  0001 C CNN
	1    4450 9250
	1    0    0    -1  
$EndComp
$Comp
L Logic:DD_NOR3_1 D?
U 1 1 5AF08159
P 4450 10250
F 0 "D?" H 4450 10867 70  0001 C CNN
F 1 "0" H 4450 10746 70  0001 C CNN
F 2 "" H 4450 10350 70  0001 C CNN
F 3 "" H 4450 10350 70  0001 C CNN
	1    4450 10250
	1    0    0    -1  
$EndComp
Entry Wire Line
	6700 10750 6800 10850
Entry Wire Line
	6700 10950 6800 11050
Entry Wire Line
	6700 11750 6800 11850
Entry Wire Line
	6700 12550 6800 12650
Entry Wire Line
	6700 13350 6800 13450
Wire Wire Line
	1150 13200 750  13200
Wire Wire Line
	1150 12900 750  12900
Wire Wire Line
	6900 14100 7350 14100
Wire Wire Line
	6900 14400 7350 14400
Wire Wire Line
	1150 13500 750  13500
Wire Wire Line
	1150 13800 750  13800
Wire Wire Line
	6900 13800 7350 13800
Wire Wire Line
	2250 6000 2250 6700
Wire Bus Line
	1250 5250 1250 14950
Wire Bus Line
	6800 14950 6800 5300
Wire Wire Line
	3450 11750 6700 11750
Wire Wire Line
	3450 12550 6700 12550
Wire Wire Line
	3450 13350 6700 13350
Wire Wire Line
	4800 6700 6700 6700
Wire Wire Line
	6900 14700 7350 14700
Wire Bus Line
	1250 14950 6800 14950
Wire Wire Line
	1350 5450 5000 5450
Wire Wire Line
	5700 5650 5700 5450
Wire Wire Line
	5700 8400 5700 8050
Wire Wire Line
	4800 6250 4800 6550
Wire Wire Line
	4800 6250 5700 6250
Wire Wire Line
	1350 10750 1800 10750
Wire Wire Line
	1350 11150 1800 11150
Wire Wire Line
	1350 11550 1800 11550
Wire Wire Line
	1350 11950 1800 11950
Wire Wire Line
	1350 12350 1800 12350
Wire Wire Line
	1350 12750 1800 12750
Wire Wire Line
	1350 14150 1550 14150
Wire Wire Line
	2250 14850 2250 14350
Wire Wire Line
	1350 8450 1800 8450
Wire Wire Line
	1350 8850 1800 8850
Wire Wire Line
	1350 9250 1800 9250
Wire Wire Line
	1350 7250 1800 7250
Wire Wire Line
	1350 7650 1800 7650
Wire Wire Line
	1350 8050 1800 8050
Wire Wire Line
	1350 5800 1550 5800
Wire Wire Line
	1350 6000 1550 6000
Wire Wire Line
	2250 6700 1350 6700
Wire Wire Line
	5700 9250 5700 9350
Wire Wire Line
	5700 10150 5700 10250
Wire Wire Line
	6700 10150 6600 10150
Wire Wire Line
	6700 9350 6600 9350
Wire Wire Line
	4800 9250 5000 9250
Wire Wire Line
	4800 10250 5000 10250
Wire Wire Line
	4800 10750 6700 10750
Wire Wire Line
	6700 10950 3450 10950
Wire Wire Line
	4800 7550 4800 7450
Wire Wire Line
	4800 7450 5000 7450
Wire Wire Line
	4800 5950 4800 5850
Wire Wire Line
	4800 5850 5000 5850
Wire Wire Line
	3450 9050 4100 9050
$Comp
L Power:+5V #PWR?
U 1 1 5AF0878E
P 4100 5750
F 0 "#PWR?" V 4102 6154 70  0001 L CNN
F 1 "+5V" V 4102 6154 70  0001 L CNN
F 2 "" H 4100 5750 70  0001 C CNN
F 3 "" H 4100 5750 70  0001 C CNN
	1    4100 5750
	0    -1   -1   0   
$EndComp
$Comp
L Power:+5V #PWR?
U 1 1 5AF08799
P 4100 5950
F 0 "#PWR?" V 4102 6354 70  0001 L CNN
F 1 "+5V" V 4102 6354 70  0001 L CNN
F 2 "" H 4100 5950 70  0001 C CNN
F 3 "" H 4100 5950 70  0001 C CNN
	1    4100 5950
	0    -1   -1   0   
$EndComp
$Comp
L Power:+5V #PWR?
U 1 1 5AF087A4
P 4100 7350
F 0 "#PWR?" V 4102 7754 70  0001 L CNN
F 1 "+5V" V 4102 7754 70  0001 L CNN
F 2 "" H 4100 7350 70  0001 C CNN
F 3 "" H 4100 7350 70  0001 C CNN
	1    4100 7350
	0    -1   -1   0   
$EndComp
$Comp
L Power:+5V #PWR?
U 1 1 5AF087AF
P 4100 7550
F 0 "#PWR?" V 4102 7954 70  0001 L CNN
F 1 "+5V" V 4102 7954 70  0001 L CNN
F 2 "" H 4100 7550 70  0001 C CNN
F 3 "" H 4100 7550 70  0001 C CNN
	1    4100 7550
	0    -1   -1   0   
$EndComp
$Comp
L Power:+5V #PWR?
U 1 1 5AF087BA
P 4100 9250
F 0 "#PWR?" V 4102 9654 70  0001 L CNN
F 1 "+5V" V 4102 9654 70  0001 L CNN
F 2 "" H 4100 9250 70  0001 C CNN
F 3 "" H 4100 9250 70  0001 C CNN
	1    4100 9250
	0    -1   -1   0   
$EndComp
$Comp
L Power:+5V #PWR?
U 1 1 5AF087C5
P 4100 9450
F 0 "#PWR?" V 4102 9854 70  0001 L CNN
F 1 "+5V" V 4102 9854 70  0001 L CNN
F 2 "" H 4100 9450 70  0001 C CNN
F 3 "" H 4100 9450 70  0001 C CNN
	1    4100 9450
	0    -1   -1   0   
$EndComp
$Comp
L Power:+5V #PWR?
U 1 1 5AF087D0
P 4100 10250
F 0 "#PWR?" V 4102 10654 70  0001 L CNN
F 1 "+5V" V 4102 10654 70  0001 L CNN
F 2 "" H 4100 10250 70  0001 C CNN
F 3 "" H 4100 10250 70  0001 C CNN
	1    4100 10250
	0    -1   -1   0   
$EndComp
$Comp
L Power:+5V #PWR?
U 1 1 5AF087DB
P 4100 10450
F 0 "#PWR?" V 4102 10854 70  0001 L CNN
F 1 "+5V" V 4102 10854 70  0001 L CNN
F 2 "" H 4100 10450 70  0001 C CNN
F 3 "" H 4100 10450 70  0001 C CNN
	1    4100 10450
	0    -1   -1   0   
$EndComp
Wire Wire Line
	4800 6700 4800 7050
Wire Wire Line
	4800 7050 5000 7050
Entry Wire Line
	6700 6700 6800 6800
Entry Wire Line
	6700 6550 6800 6650
Wire Wire Line
	4800 6550 6700 6550
Entry Wire Line
	6700 5450 6800 5550
Entry Wire Line
	6700 6250 6800 6350
Wire Wire Line
	6700 6250 6600 6250
Wire Wire Line
	6700 5450 6600 5450
Wire Wire Line
	5000 9050 4800 9050
Wire Wire Line
	4800 9050 4800 8750
Entry Wire Line
	6700 8750 6800 8850
Wire Wire Line
	4800 8750 6700 8750
Wire Wire Line
	5000 10450 4800 10450
Wire Wire Line
	4800 10450 4800 10750
Entry Wire Line
	6700 7250 6800 7350
Entry Wire Line
	6700 8050 6800 8150
Wire Wire Line
	6700 7250 6600 7250
Wire Wire Line
	6700 8050 6600 8050
Entry Wire Line
	6700 8400 6800 8500
Wire Wire Line
	6700 8400 5700 8400
Wire Wire Line
	4100 10050 3900 10050
Wire Wire Line
	3900 9850 3450 9850
Wire Wire Line
	3900 10050 3900 9850
Wire Wire Line
	3900 7750 4100 7750
Wire Wire Line
	3900 7750 3900 8250
Wire Wire Line
	3900 8250 3450 8250
Wire Wire Line
	3900 6150 3900 6550
Wire Wire Line
	4100 6150 3900 6150
Wire Wire Line
	3900 6550 3450 6550
Wire Wire Line
	3450 6550 3450 7450
$EndSCHEMATC
